{
	"info": {
		"_postman_id": "a1bb1720-01bb-42c6-b03f-1016c21a7aae",
		"name": "java2",
		"schema": "https://schema.getpostman.com/json/collection/v2.1.0/collection.json",
		"_exporter_id": "30267550"
	},
	"item": [
		{
			"name": "admin",
			"item": [
				{
					"name": "crear usuario sin nombre",
					"request": {
						"method": "POST",
						"header": [],
						"body": {
							"mode": "raw",
							"raw": "{\r\n    \"nombre\": \"\",\r\n    \"apellido\": \"\",\r\n    \"email\": \"\",\r\n    \"telefono\": \"\"\r\n}\r\n",
							"options": {
								"raw": {
									"language": "json"
								}
							}
						},
						"url": {
							"raw": "localhost:8095/crearUsuario",
							"host": [
								"localhost"
							],
							"port": "8095",
							"path": [
								"crearUsuario"
							]
						}
					},
					"response": []
				},
				{
					"name": "crear usuario",
					"request": {
						"method": "POST",
						"header": [],
						"body": {
							"mode": "raw",
							"raw": "{\r\n  \"nombre\": \"Juan\",\r\n  \"apellido\": \"Pérez\",\r\n  \"email\": \"juan.perez@example.com\",\r\n \"telefono\": \"1234\"\r\n}\r\n",
							"options": {
								"raw": {
									"language": "json"
								}
							}
						},
						"url": {
							"raw": "localhost:8095/crearUsuario",
							"host": [
								"localhost"
							],
							"port": "8095",
							"path": [
								"crearUsuario"
							]
						}
					},
					"response": []
				},
				{
					"name": "crear otro usuario",
					"request": {
						"method": "POST",
						"header": [],
						"body": {
							"mode": "raw",
							"raw": "{\r\n  \"nombre\": \"lucas\",\r\n  \"apellido\": \"lopez\",\r\n  \"email\": \"martinlopez@example.com\",\r\n \"telefono\": \"5123\"\r\n}\r\n",
							"options": {
								"raw": {
									"language": "json"
								}
							}
						},
						"url": {
							"raw": "localhost:8095/crearUsuario",
							"host": [
								"localhost"
							],
							"port": "8095",
							"path": [
								"crearUsuario"
							]
						}
					},
					"response": []
				},
				{
					"name": "tercer usuario",
					"request": {
						"method": "POST",
						"header": [],
						"body": {
							"mode": "raw",
							"raw": "{\r\n  \"nombre\": \"claudio\",\r\n  \"apellido\": \"santorelli\",\r\n  \"email\": \"clasantore@example.com\",\r\n \"telefono\": \"98123\"\r\n}\r\n",
							"options": {
								"raw": {
									"language": "json"
								}
							}
						},
						"url": {
							"raw": "localhost:8095/crearUsuario",
							"host": [
								"localhost"
							],
							"port": "8095",
							"path": [
								"crearUsuario"
							]
						}
					},
					"response": []
				},
				{
					"name": "mostrar todos los usuarios",
					"request": {
						"method": "GET",
						"header": [],
						"url": {
							"raw": "localhost:8095/usuarios",
							"host": [
								"localhost"
							],
							"port": "8095",
							"path": [
								"usuarios"
							]
						}
					},
					"response": []
				}
			]
		},
		{
			"name": "cuentas",
			"item": [
				{
					"name": "crear cuenta con saldo inicial",
					"request": {
						"method": "POST",
						"header": [],
						"body": {
							"mode": "raw",
							"raw": "{\r\n  \"numero\": 1234567890,\r\n  \"moneda\": \"USD\",\r\n  \"titularId\": 1,\r\n  \"saldoInicial\": 1000.0,\r\n  \"saldoActual\": 950.0,\r\n  \"descubiertoAcordado\": 100.0,\r\n  \"fechaCierre\": \"2023-11-05\"\r\n \r\n}\r\n",
							"options": {
								"raw": {
									"language": "json"
								}
							}
						},
						"url": {
							"raw": "localhost:8095/cuentas",
							"host": [
								"localhost"
							],
							"port": "8095",
							"path": [
								"cuentas"
							]
						}
					},
					"response": []
				},
				{
					"name": "crear otra cuenta con saldo inicial",
					"request": {
						"method": "POST",
						"header": [],
						"body": {
							"mode": "raw",
							"raw": "{\r\n  \"numero\": 1234567890,\r\n  \"moneda\": \"USD\",\r\n  \"titularId\": 2,\r\n  \"saldoInicial\": 1000.0,\r\n  \"saldoActual\": 950.0,\r\n  \"descubiertoAcordado\": 100.0,\r\n  \"fechaCierre\": \"2023-11-05\"\r\n \r\n}\r\n",
							"options": {
								"raw": {
									"language": "json"
								}
							}
						},
						"url": {
							"raw": "localhost:8095/cuentas",
							"host": [
								"localhost"
							],
							"port": "8095",
							"path": [
								"cuentas"
							]
						}
					},
					"response": []
				},
				{
					"name": "agregar cotitular",
					"request": {
						"method": "POST",
						"header": [],
						"body": {
							"mode": "raw",
							"raw": "{\r\n    \"idCuenta\": 1,\r\n    \"idCotitular\": 2\r\n}",
							"options": {
								"raw": {
									"language": "json"
								}
							}
						},
						"url": {
							"raw": "localhost:8095/cuentas/agregarCotitular",
							"host": [
								"localhost"
							],
							"port": "8095",
							"path": [
								"cuentas",
								"agregarCotitular"
							]
						}
					},
					"response": []
				},
				{
					"name": "ver cuenta",
					"protocolProfileBehavior": {
						"disableBodyPruning": true
					},
					"request": {
						"method": "GET",
						"header": [],
						"body": {
							"mode": "raw",
							"raw": "{\r\n  \"nombre\": \"Juan\",\r\n  \"apellido\": \"Pérez\",\r\n  \"email\": \"juan.perez@example.com\"\r\n}\r\n",
							"options": {
								"raw": {
									"language": "json"
								}
							}
						},
						"url": {
							"raw": "localhost:8095/cuentas/1",
							"host": [
								"localhost"
							],
							"port": "8095",
							"path": [
								"cuentas",
								"1"
							]
						}
					},
					"response": []
				}
			]
		},
		{
			"name": "transferencias",
			"item": [
				{
					"name": "transferir",
					"request": {
						"method": "POST",
						"header": [],
						"body": {
							"mode": "raw",
							"raw": "{\r\n    \"idCuentaOrigen\": 1,\r\n    \"idCuentaDestino\": 2,\r\n    \"monto\": 123.0\r\n}",
							"options": {
								"raw": {
									"language": "json"
								}
							}
						},
						"url": {
							"raw": "localhost:8095/cuentas/transferir",
							"host": [
								"localhost"
							],
							"port": "8095",
							"path": [
								"cuentas",
								"transferir"
							]
						}
					},
					"response": []
				}
			]
		},
		{
			"name": "cliente",
			"item": [
				{
					"name": "buscar por nombre",
					"request": {
						"method": "GET",
						"header": [],
						"url": {
							"raw": "localhost:8095/buscarPorNombre/Juan",
							"host": [
								"localhost"
							],
							"port": "8095",
							"path": [
								"buscarPorNombre",
								"Juan"
							]
						}
					},
					"response": []
				}
			]
		},
		{
			"name": "api currency",
			"item": [
				{
					"name": "test api",
					"request": {
						"method": "GET",
						"header": [
							{
								"key": "apikey",
								"value": "--------------",
								"type": "text"
							}
						],
						"url": {
							"raw": "https://api.apilayer.com/currency_data/convert?to=USD&from=USD&amount=19",
							"protocol": "https",
							"host": [
								"api",
								"apilayer",
								"com"
							],
							"path": [
								"currency_data",
								"convert"
							],
							"query": [
								{
									"key": "to",
									"value": "USD"
								},
								{
									"key": "from",
									"value": "USD"
								},
								{
									"key": "amount",
									"value": "19"
								}
							]
						}
					},
					"response": []
				},
				{
					"name": "test vender",
					"request": {
						"method": "POST",
						"header": [],
						"body": {
							"mode": "raw",
							"raw": "{\r\n    \"monto\": 123,\r\n    \"idCuentaOrigen\": 1,\r\n    \"idCuentaDestino\": 2\r\n}",
							"options": {
								"raw": {
									"language": "json"
								}
							}
						},
						"url": {
							"raw": "localhost:8095/cuentas/vender",
							"host": [
								"localhost"
							],
							"port": "8095",
							"path": [
								"cuentas",
								"vender"
							]
						}
					},
					"response": []
				}
			]
		}
	]
}